{"response":{"status":"ok","userTier":"developer","total":26079,"startIndex":1,"pageSize":5,"currentPage":1,"pages":5216,"orderBy":"newest","results":[{"id":"sport/live/2018/aug/02/england-v-india-first-test-day-two-live","type":"liveblog","sectionId":"sport","sectionName":"Sport","webPublicationDate":"2018-08-02T15:57:07Z","webTitle":"England v India: first Test, day two – live!","webUrl":"https://www.theguardian.com/sport/live/2018/aug/02/england-v-india-first-test-day-two-live","apiUrl":"https://content.guardianapis.com/sport/live/2018/aug/02/england-v-india-first-test-day-two-live","fields":{"headline":"England v India: first Test, day two – live!","byline":"Tim de Lisle (earlier) and Daniel Harris(now)","shortUrl":"https://gu.com/p/94ycx","thumbnail":"https://media.guim.co.uk/d618a90e9d1a6427c0dd918c4925dc47d25239dc/0_0_2592_1555/500.jpg"},"tags":[{"id":"profile/timdelisle","type":"contributor","webTitle":"Tim de Lisle","webUrl":"https://www.theguardian.com/profile/timdelisle","apiUrl":"https://content.guardianapis.com/profile/timdelisle","references":[],"bio":"<p>Tim de Lisle is a member of the Guardian's over-by-over cricket team and a former feature writer for G2. He edited Wisden&nbsp;2003&nbsp;and&nbsp;Intelligent Life magazine 2008-15, and has won two Editor of the Year awards from the British Society of Magazine Editors. He is the pop critic of The Mail on Sunday and the author of <a href=\"https://www.connellguides.com/products/the-connell-guide-to-how-to-write-well\">How to Write Well</a></p>","firstName":"de","lastName":"lisletim"},{"id":"profile/danielharris","type":"contributor","webTitle":"Daniel Harris","webUrl":"https://www.theguardian.com/profile/danielharris","apiUrl":"https://content.guardianapis.com/profile/danielharris","references":[],"bio":"<p>Daniel Harris was nominated for columnist of the year at the 2015 SJA awards. He has written two books,&nbsp;<a href=\"http://www.amazon.co.uk/On-Road-Journey-Through-Season-x/dp/0956594409/\">On The Road, a journey through a  season</a> and <a href=\"http://www.amazon.co.uk/Promised-Land-Manchester-Uniteds-Historic/dp/1909715050/ref=asap_bc?ie=UTF8\">The Promised Land</a>;&nbsp;helped Kevin Pietersen with&nbsp;<a href=\"https://www.amazon.co.uk/Kevin-Pietersen-Cricket-toughest-opponents/dp/0751562041\">Kevin Pietersen on Cricket</a>; and co-directed <a href=\"https://www.amazon.co.uk/House-Flying-Arrows-Daniel-Mendelle/dp/B01KO7G9CQ/ref=sr_1_1?s=dvd&amp;ie=UTF8&amp;qid=1490024666&amp;sr=1-1&amp;keywords=house+of+flying+arrows\">House of Flying Arrows</a> for Universal Pictures. He is now co-writing a <a href=\"http://www.boxingnews24.com/2017/04/fulwell-73-announce-benn-v-eubank-biopic/\">scripted feature on the lives of Nigel Benn and Chris Eubank</a> for Lorton Entertaniment</p>","bylineImageUrl":"https://static.guim.co.uk/sys-images/Guardian/Pix/pictures/2011/4/5/1302019018185/Daniel_Harries.jpg","firstName":"harris","lastName":"","twitterHandle":"DanielHarris"}],"isHosted":false,"pillarId":"pillar/sport","pillarName":"Sport"},{"id":"business/live/2018/aug/02/bank-of-england-interest-rate-decision-mark-carney-sterling-brexit-business-live","type":"liveblog","sectionId":"business","sectionName":"Business","webPublicationDate":"2018-08-02T15:10:05Z","webTitle":"Interest rates raised to 0.75% by Bank of England, but pound falls - business live","webUrl":"https://www.theguardian.com/business/live/2018/aug/02/bank-of-england-interest-rate-decision-mark-carney-sterling-brexit-business-live","apiUrl":"https://content.guardianapis.com/business/live/2018/aug/02/bank-of-england-interest-rate-decision-mark-carney-sterling-brexit-business-live","fields":{"headline":"Interest rates raised to 0.75% by Bank of England, but pound falls - business live","byline":"Graeme Wearden","shortUrl":"https://gu.com/p/94ma6","thumbnail":"https://media.guim.co.uk/d97a923a2846feae1223fb3b6d2adacc8804d307/0_199_3500_2100/500.jpg"},"tags":[{"id":"profile/graemewearden","type":"contributor","webTitle":"Graeme Wearden","webUrl":"https://www.theguardian.com/profile/graemewearden","apiUrl":"https://content.guardianapis.com/profile/graemewearden","references":[],"bio":"<p>Graeme Wearden tracks the latest world business, economic and financial news in our daily liveblog. Previously he worked as a technology journalist at CNET Networks</p>","bylineImageUrl":"https://static.guim.co.uk/sys-images/Guardian/Pix/contributor/2014/5/7/1399476600504/Graeme-Wearden.jpg","bylineLargeImageUrl":"https://uploads.guim.co.uk/2017/10/06/Graeme-Wearden,-L.png","firstName":"wearden","lastName":""}],"isHosted":false,"pillarId":"pillar/news","pillarName":"News"},{"id":"technology/2018/aug/02/amazon-halved-uk-corporation-tax-bill-to-45m-last-year","type":"article","sectionId":"technology","sectionName":"Technology","webPublicationDate":"2018-08-02T14:56:11Z","webTitle":"Amazon halved UK corporation tax bill to £4.5m last year","webUrl":"https://www.theguardian.com/technology/2018/aug/02/amazon-halved-uk-corporation-tax-bill-to-45m-last-year","apiUrl":"https://content.guardianapis.com/technology/2018/aug/02/amazon-halved-uk-corporation-tax-bill-to-45m-last-year","fields":{"headline":"Amazon halved UK corporation tax bill to £4.5m last year","byline":"Mark Sweney","shortUrl":"https://gu.com/p/94nqg","thumbnail":"https://media.guim.co.uk/a3b65c4ec34db6ba3b7042c700b28ad3797baed0/0_129_3500_2101/500.jpg"},"tags":[{"id":"profile/marksweney","type":"contributor","webTitle":"Mark Sweney","webUrl":"https://www.theguardian.com/profile/marksweney","apiUrl":"https://content.guardianapis.com/profile/marksweney","references":[],"bio":"<p>Mark Sweney is media business correspondent at the Guardian. He joined in March 2006. Previously he worked at Haymarket Publishing for six years, primarily as a news reporter, on Revolution, Campaign and Marketing weekly magazines. He is a New Zealander</p>","bylineImageUrl":"https://static.guim.co.uk/sys-images/Guardian/Pix/pictures/2007/10/16/mark_sweney_140x140.jpg","firstName":"sweney","lastName":"","emailAddress":"mark.sweney@theguardian.com","twitterHandle":"marksweney"}],"isHosted":false,"pillarId":"pillar/news","pillarName":"News"},{"id":"global/2018/aug/02/womad-visa-fiasco-brexit-britain-live-music-festival","type":"article","sectionId":"music","sectionName":"Music","webPublicationDate":"2018-08-02T14:17:10Z","webTitle":"What the Womad visa fiasco tells us about live music in Brexit Britain","webUrl":"https://www.theguardian.com/global/2018/aug/02/womad-visa-fiasco-brexit-britain-live-music-festival","apiUrl":"https://content.guardianapis.com/global/2018/aug/02/womad-visa-fiasco-brexit-britain-live-music-festival","fields":{"headline":"What the Womad visa fiasco tells us about live music in Brexit Britain","byline":"Kate Hutchinson","shortUrl":"https://gu.com/p/94n3y","thumbnail":"https://media.guim.co.uk/76fd446bc2307d799e498f04edb432cbf47833b9/0_0_4256_2554/500.jpg"},"tags":[{"id":"profile/kate-hutchinson","type":"contributor","webTitle":"Kate Hutchinson","webUrl":"https://www.theguardian.com/profile/kate-hutchinson","apiUrl":"https://content.guardianapis.com/profile/kate-hutchinson","references":[],"bio":"<p>Kate Hutchinson is a freelance culture writer and presenter. Twitter&nbsp;<a href=\"https://twitter.com/katehutchinson?lang=en\">@katehutchinson</a><br></p>","bylineImageUrl":"https://static.guim.co.uk/sys-images/Guardian/Pix/contributor/2015/5/13/1431535026059/Kate-Hutchinson.jpg","bylineLargeImageUrl":"https://uploads.guim.co.uk/2017/10/06/Kate-Hutchinson,-L.png","firstName":"Kate ","lastName":"Hutchinson","emailAddress":"k8.hutchinson@gmail.com","twitterHandle":"katehutchinson"}],"isHosted":false,"pillarId":"pillar/arts","pillarName":"Arts"},{"id":"politics/2018/aug/02/uks-brexit-proposals-threaten-future-of-eu-says-barnier","type":"article","sectionId":"politics","sectionName":"Politics","webPublicationDate":"2018-08-02T14:15:51Z","webTitle":"UK's Brexit proposals threaten future of EU, says Barnier","webUrl":"https://www.theguardian.com/politics/2018/aug/02/uks-brexit-proposals-threaten-future-of-eu-says-barnier","apiUrl":"https://content.guardianapis.com/politics/2018/aug/02/uks-brexit-proposals-threaten-future-of-eu-says-barnier","fields":{"headline":"UK's Brexit proposals threaten future of EU, says Barnier","byline":"Daniel Boffey in Brussels","shortUrl":"https://gu.com/p/94nh4","thumbnail":"https://media.guim.co.uk/86d5df4ac03477b1c4794ca9cc14314888fe3970/0_42_3856_2314/500.jpg"},"tags":[{"id":"profile/daniel-boffey","type":"contributor","webTitle":"Daniel Boffey","webUrl":"https://www.theguardian.com/profile/daniel-boffey","apiUrl":"https://content.guardianapis.com/profile/daniel-boffey","references":[],"bio":"<p>Daniel Boffey is the Guardian's Brussels bureau chief</p>","bylineImageUrl":"https://static.guim.co.uk/sys-images/Guardian/Pix/contributor/2016/1/28/1453983010155/Daniel-Boffey.jpg","bylineLargeImageUrl":"https://uploads.guim.co.uk/2017/10/06/Daniel-Boffey,-L.png","firstName":"boffey","lastName":"daniel"}],"isHosted":false,"pillarId":"pillar/news","pillarName":"News"}]}}